{
    "source" : {
        "type" : "csv",
        "file" : ["eudract.csv"]
    },
    "rule" : [
        {
            "name" : "eudractk1",
            "type" : "fd",
            "value" : ["eudract_number|randomised"]
        },
        {
            "name" : "eudractk2",
            "type" : "fd",
            "value" : ["eudract_number|crossover"]
        },
        {
            "name" : "eudractk3",
            "type" : "fd",
            "value" : ["eudract_number|parallel_group"]
        },
        {
            "name" : "eudractk4",
            "type" : "fd",
            "value" : ["eudract_number|open"]
        },
        {
            "name" : "eudractk5",
            "type" : "fd",
            "value" : ["eudract_number|single_blind"]
        },
        {
            "name" : "eudractk6",
            "type" : "fd",
            "value" : ["eudract_number|double_blind"]
        },
        {
            "name" : "eudractk7",
            "type" : "fd",
            "value" : ["eudract_number|controlled"]
        },
        {
            "name" : "eudractk8",
            "type" : "fd",
            "value" : ["eudract_number|arms"]
        },
        {
            "name" : "eudractk9",
            "type" : "fd",
            "value" : ["eudract_number|active_comparator"]
        },
        {
            "name" : "eudractk10",
            "type" : "fd",
            "value" : ["eudract_number|placebo"]
        },
        {
            "name" : "eudractE1",
            "type" : "dc",
            "value" : ["not(t1.double_blind='Yes'&t1.open='Yes')"]
        },
        {
            "name" : "eudractE2",
            "type" : "dc",
            "value" : ["not(t1.single_blind='Yes'&t1.open='Yes')"]
        },
        {
            "name" : "eudractE3",
            "type" : "dc",
            "value" : ["not(t1.double_blind='No'&t1.single_blind='No'&t1.open='No')"]
        },
        {
            "name" : "eudractE4",
            "type" : "dc",
            "value" : ["not(t1.controlled='No'&t1.placebo='Yes')"]
        },
        {
            "name" : "eudractE5",
            "type" : "dc",
            "value" : ["not(t1.crossover='Yes'&t1.parallel_group='Yes')"]
        },
        {
            "name" : "eudractE6",
            "type" : "dc",
            "value" : ["not(t1.double_blind='Yes'&t1.single_blind='Yes')"]
        },
        {
            "name" : "eudractE7",
            "type" : "dc",
            "value" : ["not(t1.active_comparator='Yes'&t1.controlled='No')"]
        },
        {
            "name" : "eudractE8",
            "type" : "dc",
            "value" : ["not(t1.arms<='1'&t1.placebo='Yes')"]
        },
        {
            "name" : "eudractE9",
            "type" : "dc",
            "value" : ["not(t1.arms<='1'&t1.active_comparator='Yes')"]
        }
    ]
}





